<?xml version="1.0" encoding="UTF-8" standalone="no"?>
<!-- Generator: Adobe Illustrator 19.0.0, SVG Export Plug-In . SVG Version: 6.00 Build 0)  -->

<svg
   xmlns:dc="http://purl.org/dc/elements/1.1/"
   xmlns:cc="http://creativecommons.org/ns#"
   xmlns:rdf="http://www.w3.org/1999/02/22-rdf-syntax-ns#"
   xmlns:svg="http://www.w3.org/2000/svg"
   xmlns="http://www.w3.org/2000/svg"
   xmlns:sodipodi="http://sodipodi.sourceforge.net/DTD/sodipodi-0.dtd"
   xmlns:inkscape="http://www.inkscape.org/namespaces/inkscape"
   version="1.1"
   id="Layer_1"
   x="0px"
   y="0px"
   viewBox="0 0 96 96"
   style="enable-background:new 0 0 96 96;"
   xml:space="preserve"
   sodipodi:docname="download.svg"
   inkscape:version="0.92.3pre0 (0ab9bec, 2018-03-03)"><metadata
   id="metadata11"><rdf:RDF><cc:Work
       rdf:about=""><dc:format>image/svg+xml</dc:format><dc:type
         rdf:resource="http://purl.org/dc/dcmitype/StillImage" /><dc:title></dc:title></cc:Work></rdf:RDF></metadata><defs
   id="defs9">
	
</defs><sodipodi:namedview
   pagecolor="#ffffff"
   bordercolor="#666666"
   borderopacity="1"
   objecttolerance="10"
   gridtolerance="10"
   guidetolerance="10"
   inkscape:pageopacity="0"
   inkscape:pageshadow="2"
   inkscape:window-width="2560"
   inkscape:window-height="1440"
   id="namedview7"
   showgrid="false"
   inkscape:zoom="2.4583333"
   inkscape:cx="-33.355932"
   inkscape:cy="57.355932"
   inkscape:window-x="0"
   inkscape:window-y="0"
   inkscape:window-maximized="1"
   inkscape:current-layer="Layer_1" />
<style
   type="text/css"
   id="style2">
	.st0{fill:#333333;}
</style>
<path
   style="fill:#ffffff;fill-opacity:1;stroke-width:1.77023363"
   inkscape:connector-curvature="0"
   d="m 74.110947,81.722952 c 0,-1.06214 -0.354047,-1.94726 -1.06214,-2.65535 -0.708094,-0.70809 -1.593211,-1.06214 -2.655351,-1.06214 -1.06214,0 -1.947257,0.35405 -2.65535,1.06214 -0.708094,0.70809 -1.062141,1.59321 -1.062141,2.65535 0,1.06214 0.354047,1.94726 1.062141,2.65535 0.708093,0.7081 1.59321,1.06214 2.65535,1.06214 1.06214,0 1.947257,-0.35404 2.655351,-1.06214 0.708093,-0.70809 1.06214,-1.59321 1.06214,-2.65535 z m 15.046986,0 c 0,-1.06214 -0.354047,-1.94726 -1.06214,-2.65535 -0.708094,-0.70809 -1.593211,-1.06214 -2.655351,-1.06214 -1.06214,0 -1.947257,0.35405 -2.65535,1.06214 -0.885117,0.88512 -1.239164,1.77023 -1.239164,2.65535 0,1.06214 0.354047,1.94726 1.06214,2.65535 0.708094,0.7081 1.593211,1.06214 2.655351,1.06214 1.06214,0 1.947257,-0.35404 2.65535,-1.06214 0.885117,-0.70809 1.239164,-1.59321 1.239164,-2.65535 z m 7.434981,-13.099728 v 18.764478 c 0,1.59321 -0.53107,2.83237 -1.59321,3.89451 -1.06214,1.06214 -2.478327,1.59321 -3.894514,1.59321 H 4.89481 c -1.59321,0 -2.832374,-0.53107 -3.894514,-1.59321 -1.06214,-1.06214 -1.59321,-2.47832 -1.59321,-3.89451 V 68.623224 c 0,-1.59321 0.53107,-2.832374 1.59321,-3.894514 1.06214,-1.06214 2.478327,-1.59321 3.894514,-1.59321 h 27.084575 l 7.966052,7.966051 c 2.301304,2.124281 4.956654,3.363444 7.966051,3.363444 3.009398,0 5.664748,-1.06214 7.966052,-3.363444 L 63.843591,63.1355 h 27.084576 c 1.59321,0 2.832374,0.53107 3.894514,1.59321 1.239163,1.06214 1.770233,2.478327 1.770233,3.894514 z m -18.9415,-33.280393 c 0.708094,1.593211 0.354047,3.009397 -0.885117,4.071538 L 50.566839,65.613827 c -0.708094,0.708094 -1.59321,1.06214 -2.655351,1.06214 -1.06214,0 -1.947257,-0.354046 -2.65535,-1.06214 L 19.056679,39.414369 c -1.239163,-1.062141 -1.416187,-2.478327 -0.885116,-4.071538 0.708093,-1.59321 1.770233,-2.301304 3.540467,-2.301304 H 36.759016 V 6.842069 c 0,-1.06214 0.354047,-1.947257 1.06214,-2.655351 0.708094,-0.708093 1.593211,-1.06214 2.655351,-1.06214 h 15.046986 c 1.06214,0 1.947257,0.354047 2.655351,1.06214 0.708093,0.708094 1.06214,1.593211 1.06214,2.655351 V 33.041527 H 74.28797 c 1.416187,0 2.655351,0.885117 3.363444,2.301304 z"
   class="st0"
   id="XMLID_8_" />
</svg>